{
	"title": "California Team",
	"parent":null,
	"chapters": [
		{
			"title": "SGV",
			"id": "1"
		},
		{
			"title": "SGV Expansion",
			"id": "2"
		},
		{
			"title": "Biola",
			"id": "3"
		},
		{
			"title": "Biola Expansion",
			"id": "4"
		},
		{
			"title": "USC",
			"id": "5"
		},
		{
			"title": "USC HomeTown",
			"id": "6"
		},
		{
			"title": "CA Expansion",
			"id": "15"
		},
		{
			"title": "Alumni",
			"id": "16"
		},
		{
			"title": "CA Region",
			"id": "17"
		},
		{
			"title": "Kern County",
			"id": "21"
		},
		{
			"title": "South Bay",
			"id": "22"
		},
		{
			"title": "Fontana/Rialto",
			"id": "23"
		},
		{
			"title": "CBU/Riverside",
			"id": "25"
		},
		{
			"title": "Inland Empire",
			"id": "26"
		},
		{
			"title": "San Jose",
			"id": "27"
		},
		{
			"title": "Washington",
			"id": "31"
		}
	]
}
